<?xml version="1.0" encoding="UTF-8" standalone="no"?>
<!-- Created with Inkscape (http://www.inkscape.org/) -->

<svg
   width="23.980005"
   height="23.980005"
   viewBox="0 0 6.3447098 6.3447098"
   version="1.1"
   id="svg197"
   inkscape:version="1.2.1 (9c6d41e410, 2022-07-14)"
   sodipodi:docname="Directum.svg"
   xmlns:inkscape="http://www.inkscape.org/namespaces/inkscape"
   xmlns:sodipodi="http://sodipodi.sourceforge.net/DTD/sodipodi-0.dtd"
   xmlns="http://www.w3.org/2000/svg"
   xmlns:svg="http://www.w3.org/2000/svg">
  <sodipodi:namedview
     id="namedview199"
     pagecolor="#ffffff"
     bordercolor="#000000"
     borderopacity="0.25"
     inkscape:showpageshadow="2"
     inkscape:pageopacity="0.0"
     inkscape:pagecheckerboard="0"
     inkscape:deskcolor="#d1d1d1"
     inkscape:document-units="mm"
     showgrid="false"
     inkscape:zoom="6.0364197"
     inkscape:cx="3.0647305"
     inkscape:cy="25.511811"
     inkscape:window-width="1920"
     inkscape:window-height="1027"
     inkscape:window-x="-8"
     inkscape:window-y="-8"
     inkscape:window-maximized="1"
     inkscape:current-layer="layer1" />
  <defs
     id="defs194" />
  <g
     inkscape:label="Слой 1"
     inkscape:groupmode="layer"
     id="layer1"
     transform="translate(-130.42505,-165.84063)">
    <path
       d="m 130.42505,166.63385 a 0.79295624,0.79295624 0 0 1 0.79296,-0.79322 h 4.75853 a 0.79295624,0.79295624 0 0 1 0.79322,0.79322 v 4.75853 a 0.79295624,0.79295624 0 0 1 -0.79322,0.79296 h -4.75853 a 0.79295624,0.79295624 0 0 1 -0.79296,-0.79296 z"
       fill="#ff8600"
       id="path14"
       style="stroke-width:0.264583" />
    <path
       fill-rule="evenodd"
       clip-rule="evenodd"
       d="m 133.76727,170.10677 c 0.12567,0.32411 0.22939,0.59187 0.26484,0.69506 0.0979,0.28443 0.0617,0.46673 -0.0492,0.54054 -0.16166,0.10769 -0.37121,0.0455 -0.61621,-0.23309 -0.16325,-0.17939 -0.59505,-0.74242 -0.94192,-1.33985 -0.245,-0.3982 -0.49212,-0.88477 -0.78713,-1.47453 -0.24765,-0.67601 0.11641,-0.88953 0.62706,-1.08876 0.55086,-0.21907 1.34699,-0.43815 1.79625,-0.51779 0.3265,-0.0598 0.83106,-0.11165 0.93901,0.0796 0.0611,0.11959 0.0146,0.30507 -0.27914,0.49477 l -0.36433,0.22437 a 128.25942,128.25942 0 0 1 -0.91466,0.56198 c -0.30612,0.17912 -0.29289,0.44 -0.21114,0.63896 0.13229,0.37518 0.35666,0.95462 0.53658,1.4187 z m 1.24539,-0.36063 c 0.0677,0.18071 0.12383,0.3302 0.14288,0.38762 0.027,0.0812 0.0288,0.18309 0.0259,0.20426 -0.018,0.12752 -0.15398,0.14552 -0.25479,0.0844 a 0.55033333,0.55033333 0 0 1 -0.12991,-0.11721 c -0.0881,-0.0998 -0.3212,-0.41381 -0.50826,-0.74719 -0.1323,-0.22225 -0.26538,-0.49344 -0.42466,-0.82259 -0.13362,-0.37703 0.063,-0.49609 0.33814,-0.60721 0.29739,-0.12224 0.72681,-0.24448 0.96917,-0.28893 l 0.0291,-0.005 c 0.17357,-0.0336 0.40058,-0.077 0.47731,0.0497 0.0402,0.0664 0.008,0.17013 -0.15055,0.27596 l -0.19632,0.12515 c -0.17172,0.1098 -0.40005,0.25559 -0.49345,0.31353 -0.16536,0.10001 -0.15822,0.24527 -0.11403,0.35639 0.0714,0.20929 0.19235,0.53261 0.28945,0.79137 z"
       fill="#ffffff"
       id="path16"
       style="stroke-width:0.264583" />
  </g>
</svg>
