<?xml version="1.0" standalone="no"?>
<!DOCTYPE svg PUBLIC "-//W3C//DTD SVG 20010904//EN"
 "http://www.w3.org/TR/2001/REC-SVG-20010904/DTD/svg10.dtd">
<svg version="1.0" xmlns="http://www.w3.org/2000/svg"
 width="512.000000pt" height="512.000000pt" viewBox="0 0 512.000000 512.000000"
 preserveAspectRatio="xMidYMid meet">

<g transform="translate(0.000000,512.000000) scale(0.100000,-0.100000)"
fill="#000000" stroke="none">
<path d="M214 5113 c-12 -2 -30 -13 -40 -25 -18 -19 -19 -100 -19 -2529 l0
-2508 23 -23 23 -23 1909 0 1909 0 23 23 23 23 3 614 2 615 -80 0 -80 0 0
-555 0 -555 -1800 0 -1800 0 0 2390 0 2390 1415 0 1415 0 0 -282 c0 -263 2
-286 21 -328 11 -25 35 -60 52 -78 64 -67 62 -66 392 -72 l300 -5 3 -427 2
-428 80 0 81 0 -3 485 -3 485 -408 407 -407 408 -1508 1 c-829 1 -1517 -1
-1528 -3z m3331 -523 l240 -240 -212 0 c-210 0 -212 0 -240 24 l-28 24 -3 216
c-2 119 -2 216 0 216 2 0 111 -108 243 -240z"/>
<path d="M520 4750 c-11 -11 -22 -30 -25 -42 -3 -13 -4 -317 -3 -675 l3 -652
23 -23 23 -23 630 0 631 0 24 28 24 28 0 665 0 665 -25 24 -24 25 -631 0
c-614 0 -631 -1 -650 -20z m1170 -695 l0 -555 -515 0 -515 0 0 555 0 555 515
0 515 0 0 -555z"/>
<path d="M1086 4504 c-57 -21 -102 -58 -133 -112 -25 -42 -28 -59 -31 -153 -4
-92 -1 -113 17 -155 20 -45 21 -48 4 -58 -49 -27 -116 -105 -150 -172 -27 -56
-37 -89 -41 -144 -4 -64 -3 -73 18 -95 l23 -25 377 0 377 0 22 24 c21 22 23
32 19 93 -7 102 -39 172 -111 247 -34 35 -70 68 -80 73 -17 9 -17 11 0 44 27
51 31 225 8 287 -49 126 -194 192 -319 146z m135 -167 c27 -21 39 -54 39 -112
0 -69 -20 -109 -60 -124 -36 -12 -66 -3 -95 29 -16 18 -20 36 -20 95 0 64 3
77 24 99 27 29 83 35 112 13z m22 -421 c58 -17 101 -48 138 -99 50 -69 57 -67
-211 -67 -132 0 -240 4 -240 8 0 22 62 102 95 122 81 50 139 60 218 36z"/>
<path d="M2200 3925 l0 -85 165 0 165 0 0 85 0 85 -165 0 -165 0 0 -85z"/>
<path d="M2710 3925 l0 -85 425 0 425 0 0 85 0 85 -425 0 -425 0 0 -85z"/>
<path d="M4490 3901 c-69 -21 -123 -66 -154 -129 -10 -19 -281 -669 -604
-1445 l-587 -1412 -3 -259 c-3 -256 -3 -259 19 -282 16 -17 34 -24 59 -24 34
0 48 12 215 183 l179 182 539 1305 c297 718 541 1307 543 1309 5 6 84 -31 83
-38 0 -3 -51 -127 -113 -276 l-113 -270 57 -26 c31 -15 65 -29 76 -32 17 -6
33 29 143 295 68 165 128 315 134 334 16 51 -9 79 -114 127 -69 32 -88 45 -83
57 48 115 54 168 27 245 -40 117 -184 192 -303 156z m129 -186 c15 -15 24 -35
24 -53 0 -21 -153 -415 -167 -429 -6 -6 -156 60 -156 69 0 9 129 326 158 387
17 37 65 63 97 54 11 -3 31 -16 44 -28z m-289 -605 c41 -17 75 -32 77 -34 4
-4 -902 -2195 -912 -2204 -7 -8 -146 50 -151 63 -4 9 397 986 891 2173 8 17
16 32 18 32 2 0 37 -14 77 -30z m-976 -2365 c20 -8 36 -18 36 -22 0 -10 -72
-83 -82 -83 -4 0 -8 27 -8 60 0 33 4 60 9 60 5 0 25 -7 45 -15z"/>
<path d="M2200 3500 l0 -80 680 0 680 0 0 80 0 80 -680 0 -680 0 0 -80z"/>
<path d="M750 2815 l0 -85 1405 0 1405 0 0 85 0 85 -1405 0 -1405 0 0 -85z"/>
<path d="M750 2305 l0 -85 1405 0 1405 0 0 85 0 85 -1405 0 -1405 0 0 -85z"/>
<path d="M750 1790 l0 -80 165 0 165 0 0 80 0 80 -165 0 -165 0 0 -80z"/>
<path d="M1260 1790 l0 -80 1065 0 1065 0 0 80 0 80 -1065 0 -1065 0 0 -80z"/>
<path d="M750 1195 l0 -85 1190 0 1190 0 0 85 0 85 -1190 0 -1190 0 0 -85z"/>
</g>
</svg>
