<?xml version="1.0" standalone="no"?>
<!DOCTYPE svg PUBLIC "-//W3C//DTD SVG 20010904//EN"
 "http://www.w3.org/TR/2001/REC-SVG-20010904/DTD/svg10.dtd">
<svg version="1.0" xmlns="http://www.w3.org/2000/svg"
 width="512.000000pt" height="512.000000pt" viewBox="0 0 512.000000 512.000000"
 preserveAspectRatio="xMidYMid meet">

<g transform="translate(0.000000,512.000000) scale(0.100000,-0.100000)"
fill="#000000" stroke="none">
<path d="M1924 4942 c-139 -49 -264 -173 -288 -289 l-7 -31 -185 -4 -186 -3
-29 -33 c-28 -31 -29 -35 -29 -137 l0 -105 -215 0 c-135 0 -223 -4 -238 -11
-55 -25 -52 72 -52 -1764 0 -1836 -3 -1739 52 -1764 17 -8 242 -11 762 -11
l737 0 24 -42 c76 -137 200 -281 251 -292 37 -7 60 4 116 55 34 31 50 39 80
39 50 0 82 -18 110 -59 27 -40 29 -71 7 -135 -13 -38 -14 -52 -4 -76 16 -39
40 -53 135 -78 167 -45 342 -50 513 -16 97 20 117 30 138 70 18 33 18 36 1 83
-22 63 -21 89 3 128 23 39 67 63 112 63 42 -1 65 -15 112 -67 72 -80 134 -56
266 104 117 141 230 377 230 480 0 45 -36 81 -90 89 -85 14 -144 88 -126 159
11 42 71 95 107 95 50 0 94 24 109 61 12 29 11 42 -8 116 -45 177 -146 357
-273 485 -58 60 -71 68 -103 68 -30 0 -46 -9 -87 -46 -42 -40 -57 -48 -99 -52
-48 -4 -52 -3 -91 37 -45 45 -44 36 -23 188 9 63 -26 93 -131 117 -44 10 -88
20 -97 23 -17 4 -18 58 -18 949 l0 946 -29 29 -29 29 -221 0 -221 0 0 90 c0
176 -19 190 -263 190 l-164 0 -22 61 c-29 78 -91 153 -169 206 -79 53 -115 64
-227 69 -68 3 -102 -1 -141 -14z m213 -183 c47 -17 102 -60 124 -96 12 -19 19
-36 17 -39 -3 -2 -108 -3 -233 -2 l-228 3 34 45 c63 83 194 124 286 89z m583
-494 l0 -165 -115 0 -115 0 0 79 c0 70 -3 83 -24 108 -33 38 -95 39 -132 2
-22 -23 -26 -37 -31 -108 l-6 -81 -248 0 -249 0 0 76 c0 86 -8 107 -51 130
-38 19 -79 11 -109 -21 -19 -20 -24 -39 -28 -105 l-5 -80 -108 0 -109 0 0 165
0 165 665 0 665 0 0 -165z m-1520 -195 c0 -43 5 -90 11 -104 26 -57 8 -56 841
-55 419 1 774 4 787 8 46 13 66 54 70 147 l3 84 154 0 154 0 0 -874 0 -873
-31 -7 c-17 -3 -47 -6 -66 -6 -45 0 -170 -29 -206 -47 -39 -20 -59 -70 -46
-114 29 -93 -8 -169 -88 -185 -49 -9 -77 2 -133 51 -66 58 -93 59 -157 4 -153
-133 -306 -397 -321 -552 -4 -50 -2 -61 17 -81 13 -13 43 -29 68 -36 28 -7 57
-23 74 -42 24 -25 29 -39 29 -83 0 -46 -4 -58 -30 -83 -18 -18 -49 -34 -79
-42 -83 -20 -108 -66 -87 -162 l8 -38 -646 0 -646 0 0 1585 0 1585 160 0 160
0 0 -80z m2228 -1875 c19 -6 22 -14 22 -56 0 -111 81 -233 187 -281 74 -33
191 -31 261 5 30 15 55 27 57 27 20 0 198 -314 183 -324 -1 -1 -26 -17 -55
-35 -95 -60 -145 -151 -145 -266 0 -115 57 -218 146 -266 53 -28 53 -25 -4
-139 -34 -67 -119 -192 -140 -205 -4 -2 -36 10 -70 28 -57 29 -72 32 -144 31
-68 0 -90 -5 -133 -27 -104 -54 -166 -144 -178 -262 l-7 -62 -52 -7 c-76 -9
-141 -7 -232 5 l-81 12 -7 69 c-15 168 -132 283 -296 296 -55 4 -77 0 -134
-23 l-69 -28 -28 34 c-28 34 -133 234 -144 275 -4 17 1 24 25 34 51 21 128
114 146 177 22 75 15 174 -17 237 -22 46 -100 128 -129 138 -13 4 -13 12 2 52
22 60 99 189 142 239 l33 37 54 -27 c71 -37 188 -40 260 -6 105 47 177 147
188 258 l6 60 40 7 c48 8 281 2 313 -7z"/>
<path d="M1217 3609 c-11 -6 -25 -26 -33 -45 -12 -29 -12 -39 0 -68 8 -19 23
-39 34 -45 12 -6 72 -11 135 -11 l115 0 26 31 c37 44 32 102 -13 136 -20 16
-238 17 -264 2z"/>
<path d="M1646 3594 c-19 -19 -26 -37 -26 -64 0 -27 7 -45 26 -64 l27 -26 264
0 c170 0 272 4 285 11 26 14 48 67 41 102 -3 15 -17 36 -31 47 -23 19 -41 20
-292 20 l-267 0 -27 -26z"/>
<path d="M1223 3138 c-29 -14 -55 -71 -47 -102 3 -13 17 -35 31 -48 l25 -23
809 0 809 0 26 26 c36 36 36 92 0 128 l-26 26 -803 2 c-553 1 -809 -1 -824 -9z"/>
<path d="M2408 2671 c-46 -41 -45 -92 1 -133 28 -25 39 -29 70 -24 90 14 112
129 31 171 -42 22 -66 19 -102 -14z"/>
<path d="M1235 2681 c-26 -11 -51 -40 -59 -68 -10 -32 20 -89 53 -102 19 -8
159 -11 470 -9 l443 3 24 28 c32 37 32 87 0 124 l-24 28 -444 2 c-243 1 -452
-2 -463 -6z"/>
<path d="M1244 1822 c-12 -2 -32 -14 -45 -28 -24 -26 -24 -26 -24 -280 l0
-254 26 -25 c43 -44 123 -32 148 22 7 15 11 108 11 258 0 150 -4 243 -11 258
-15 34 -63 56 -105 49z"/>
<path d="M3203 1811 c-37 -23 -47 -50 -39 -96 16 -85 131 -101 171 -25 21 41
12 83 -27 115 -35 30 -62 31 -105 6z"/>
<path d="M3526 1674 c-38 -39 -36 -89 7 -145 46 -60 62 -94 77 -160 35 -157
-52 -325 -205 -396 -51 -23 -73 -28 -145 -28 -77 0 -92 3 -152 33 -144 71
-222 219 -197 376 11 65 25 97 76 173 30 44 34 57 29 87 -8 44 -47 76 -94 76
-28 0 -43 -8 -74 -41 -78 -82 -128 -218 -128 -351 0 -148 51 -275 151 -377
214 -220 552 -225 771 -10 114 111 178 279 162 426 -14 134 -77 271 -153 336
-43 36 -89 36 -125 1z"/>
</g>
</svg>
